[
    {
        "data_type":"sensor",
        "model":"FakeModel",
        "source":"FakeSerialNumber",
        "timestamp":"UTC_Time",
        "fields":{            
            "data1":"some dataz",
            "data2":"moar dataz"            
        }

    }
]